<?xml version="1.0" encoding="UTF-8" standalone="no"?>
<svg width="942px" height="642px" viewBox="0 0 942 642" version="1.1" xmlns="http://www.w3.org/2000/svg" xmlns:xlink="http://www.w3.org/1999/xlink">
    <!-- Generator: Sketch 41.2 (35397) - http://www.bohemiancoding.com/sketch -->
    <title>Group 2</title>
    <desc>Created with Sketch.</desc>
    <defs>
        <polygon id="path-1" points="163 0 873 0 935 67 865 636 739 636 644 562 644 476 560 476 560 347 501 347 501 397.082031 436.386719 397.082031 436.386719 426.179688 355.59375 426.179688 355.59375 542 5.68434189e-14 542 5.68434189e-14 251 57 251 57 226 107 226 107 156 163 156"></polygon>
        <mask id="mask-2" maskContentUnits="userSpaceOnUse" maskUnits="objectBoundingBox" x="-3" y="-3" width="941" height="642">
            <rect x="-3" y="-3" width="941" height="642" fill="white"></rect>
            <use xlink:href="#path-1" fill="black"></use>
        </mask>
    </defs>
    <g id="Welcome" stroke="none" stroke-width="1" fill="none" fill-rule="evenodd">
        <g id="Section" transform="translate(-250.000000, -157.000000)">
            <g id="Group-2" transform="translate(253.000000, 160.000000)">
                <use id="Path-Copy-2" stroke="#11BAD7" mask="url(#mask-2)" stroke-width="6" xlink:href="#path-1"></use>
                <path d="M208.627613,226.500221 L248.765237,226.500221 L248.765237,5 L168.489989,5 L168.489989,161.09076 L112,161.09076 L112,226.500221 L208.627613,226.500221 Z" id="Combined-Shape-Copy" fill="#11BAD7"></path>
                <rect id="Rectangle-9-Copy-5" fill="#11BAD7" x="565" y="409" width="79.7548422" height="60.9497252"></rect>
                <rect id="Rectangle-9-Copy-6" fill="#11BAD7" x="565" y="347" width="79.7548422" height="56.7696742"></rect>
                <rect id="Rectangle-9-Copy-12" fill="#11BAD7" x="489" y="165" width="89" height="78"></rect>
                <rect id="Rectangle-9-Copy-7" fill="#11BAD7" x="436" y="293" width="60.9497252" height="99.930286"></rect>
                <rect id="Rectangle-9-Copy-13" fill="#11BAD7" x="287" y="426" width="63.9497252" height="111.913678"></rect>
                <rect id="Rectangle-9-Copy-14" fill="#11BAD7" x="287" y="364" width="145" height="56.7696742"></rect>
                <rect id="Rectangle-9-Copy-15" fill="#11BAD7" x="287" y="324" width="145" height="35"></rect>
                <rect id="Rectangle-9-Copy-15" fill="#11BAD7" x="343" y="293" width="89" height="67"></rect>
                <polygon id="Rectangle-9-Copy-10" fill="#11BAD7" points="611 4 691 4 691 116 611 116"></polygon>
                <polygon id="Rectangle-9-Copy-11" fill="#11BAD7" points="697 4 777 4 777 116 697 116"></polygon>
                <rect id="Rectangle-9-Copy-8" fill="#11BAD7" x="4" y="426" width="122.922668" height="111.4934"></rect>
                <rect id="Rectangle-9-Copy-9" fill="#11BAD7" x="4" y="310" width="122.922668" height="111.4934"></rect>
                <rect id="Rectangle-9-Copy-16" fill="#11BAD7" x="4" y="271" width="122.922668" height="35"></rect>
                <circle id="Oval-Copy" fill="#11BAD7" cx="140" cy="527" r="8"></circle>
                <circle id="Oval-Copy-4" fill="#11BAD7" cx="140" cy="502" r="8"></circle>
                <circle id="Oval-Copy-5" fill="#11BAD7" cx="140" cy="477" r="8"></circle>
                <circle id="Oval-Copy-2" fill="#11BAD7" cx="164" cy="527" r="8"></circle>
                <circle id="Oval-Copy-3" fill="#11BAD7" cx="188" cy="527" r="8"></circle>
                <g id="Group-Copy-56" transform="translate(328.000000, 117.000000)" fill="#11BAD7">
                    <path d="M14.1139655,15.0097633 L14.1072945,15 L0,15 L0,37 L22,37 L22,23.0290846 L21.9823205,23.019039 C21.9940427,22.8475456 22,22.6744685 22,22.5 C22,18.3578644 18.6421356,15 14.5,15 C14.3705294,15 14.241825,15.0032806 14.1139655,15.0097633 Z M0,0 L37,0 L37,37 L0,37 L0,0 Z" id="Combined-Shape"></path>
                    <circle id="Oval" cx="8" cy="29" r="8"></circle>
                </g>
                <g id="Group-Copy-68" transform="translate(494.000000, 124.000000)" fill="#11BAD7">
                    <path d="M14.1139655,15.0097633 L14.1072945,15 L0,15 L0,37 L22,37 L22,23.0290846 L21.9823205,23.019039 C21.9940427,22.8475456 22,22.6744685 22,22.5 C22,18.3578644 18.6421356,15 14.5,15 C14.3705294,15 14.241825,15.0032806 14.1139655,15.0097633 Z M0,0 L37,0 L37,37 L0,37 L0,0 Z" id="Combined-Shape"></path>
                    <circle id="Oval" cx="8" cy="29" r="8"></circle>
                </g>
                <g id="Group-Copy-74" transform="translate(638.000000, 202.000000)" fill="#11BAD7">
                    <path d="M14.1139655,15.0097633 L14.1072945,15 L0,15 L0,37 L22,37 L22,23.0290846 L21.9823205,23.019039 C21.9940427,22.8475456 22,22.6744685 22,22.5 C22,18.3578644 18.6421356,15 14.5,15 C14.3705294,15 14.241825,15.0032806 14.1139655,15.0097633 Z M0,0 L37,0 L37,37 L0,37 L0,0 Z" id="Combined-Shape"></path>
                    <circle id="Oval" cx="8" cy="29" r="8"></circle>
                </g>
                <g id="Group-Copy-92" transform="translate(751.000000, 272.000000)" fill="#11BAD7">
                    <path d="M14.1139655,15.0097633 L14.1072945,15 L0,15 L0,37 L22,37 L22,23.0290846 L21.9823205,23.019039 C21.9940427,22.8475456 22,22.6744685 22,22.5 C22,18.3578644 18.6421356,15 14.5,15 C14.3705294,15 14.241825,15.0032806 14.1139655,15.0097633 Z M0,0 L37,0 L37,37 L0,37 L0,0 Z" id="Combined-Shape"></path>
                    <circle id="Oval" cx="8" cy="29" r="8"></circle>
                </g>
                <g id="Group-Copy-96" transform="translate(718.000000, 378.000000)" fill="#11BAD7">
                    <path d="M14.1139655,15.0097633 L14.1072945,15 L0,15 L0,37 L22,37 L22,23.0290846 L21.9823205,23.019039 C21.9940427,22.8475456 22,22.6744685 22,22.5 C22,18.3578644 18.6421356,15 14.5,15 C14.3705294,15 14.241825,15.0032806 14.1139655,15.0097633 Z M0,0 L37,0 L37,37 L0,37 L0,0 Z" id="Combined-Shape"></path>
                    <circle id="Oval" cx="8" cy="29" r="8"></circle>
                </g>
                <g id="Group-Copy-100" transform="translate(718.000000, 486.000000)" fill="#11BAD7">
                    <path d="M14.1139655,15.0097633 L14.1072945,15 L0,15 L0,37 L22,37 L22,23.0290846 L21.9823205,23.019039 C21.9940427,22.8475456 22,22.6744685 22,22.5 C22,18.3578644 18.6421356,15 14.5,15 C14.3705294,15 14.241825,15.0032806 14.1139655,15.0097633 Z M0,0 L37,0 L37,37 L0,37 L0,0 Z" id="Combined-Shape"></path>
                    <circle id="Oval" cx="8" cy="29" r="8"></circle>
                </g>
                <g id="active-desk" transform="translate(448.000000, 206.000000)" fill="#11BAD7">
                    <path d="M14.1139655,15.0097633 L14.1072945,15 L0,15 L0,37 L22,37 L22,23.0290846 L21.9823205,23.019039 C21.9940427,22.8475456 22,22.6744685 22,22.5 C22,18.3578644 18.6421356,15 14.5,15 C14.3705294,15 14.241825,15.0032806 14.1139655,15.0097633 Z M0,0 L37,0 L37,37 L0,37 L0,0 Z" id="Combined-Shape"></path>
                    <circle id="Oval" cx="8" cy="29" r="8"></circle>
                </g>
                <g id="Group-Copy-64" transform="translate(397.000000, 4.000000)" fill="#11BAD7">
                    <path d="M14.1139655,15.0097633 L14.1072945,15 L0,15 L0,37 L22,37 L22,23.0290846 L21.9823205,23.019039 C21.9940427,22.8475456 22,22.6744685 22,22.5 C22,18.3578644 18.6421356,15 14.5,15 C14.3705294,15 14.241825,15.0032806 14.1139655,15.0097633 Z M0,0 L37,0 L37,37 L0,37 L0,0 Z" id="Combined-Shape"></path>
                    <circle id="Oval" cx="8" cy="29" r="8"></circle>
                </g>
                <g id="Group-Copy-66" transform="translate(517.000000, 4.000000)" fill="#11BAD7">
                    <path d="M14.1139655,15.0097633 L14.1072945,15 L0,15 L0,37 L22,37 L22,23.0290846 L21.9823205,23.019039 C21.9940427,22.8475456 22,22.6744685 22,22.5 C22,18.3578644 18.6421356,15 14.5,15 C14.3705294,15 14.241825,15.0032806 14.1139655,15.0097633 Z M0,0 L37,0 L37,37 L0,37 L0,0 Z" id="Combined-Shape"></path>
                    <circle id="Oval" cx="8" cy="29" r="8"></circle>
                </g>
                <g id="Group-Copy-80" transform="translate(787.000000, 4.000000)" fill="#11BAD7">
                    <path d="M14.1139655,15.0097633 L14.1072945,15 L0,15 L0,37 L22,37 L22,23.0290846 L21.9823205,23.019039 C21.9940427,22.8475456 22,22.6744685 22,22.5 C22,18.3578644 18.6421356,15 14.5,15 C14.3705294,15 14.241825,15.0032806 14.1139655,15.0097633 Z M0,0 L37,0 L37,37 L0,37 L0,0 Z" id="Combined-Shape"></path>
                    <circle id="Oval" cx="8" cy="29" r="8"></circle>
                </g>
                <g id="Group-Copy-60" transform="translate(328.000000, 223.000000)" fill="#11BAD7">
                    <path d="M14.1139655,15.0097633 L14.1072945,15 L0,15 L0,37 L22,37 L22,23.0290846 L21.9823205,23.019039 C21.9940427,22.8475456 22,22.6744685 22,22.5 C22,18.3578644 18.6421356,15 14.5,15 C14.3705294,15 14.241825,15.0032806 14.1139655,15.0097633 Z M0,0 L37,0 L37,37 L0,37 L0,0 Z" id="Combined-Shape"></path>
                    <circle id="Oval" cx="8" cy="29" r="8"></circle>
                </g>
                <g id="Group-Copy-57" transform="translate(388.000000, 135.000000) rotate(-90.000000) translate(-388.000000, -135.000000) translate(369.000000, 116.000000)" fill="#11BAD7">
                    <path d="M14.1139655,15.0097633 L14.1072945,15 L0,15 L0,37 L22,37 L22,23.0290846 L21.9823205,23.019039 C21.9940427,22.8475456 22,22.6744685 22,22.5 C22,18.3578644 18.6421356,15 14.5,15 C14.3705294,15 14.241825,15.0032806 14.1139655,15.0097633 Z M0,0 L37,0 L37,37 L0,37 L0,0 Z" id="Combined-Shape"></path>
                    <circle id="Oval" cx="8" cy="29" r="8"></circle>
                </g>
                <g id="Group-Copy-69" transform="translate(553.500000, 142.500000) rotate(-90.000000) translate(-553.500000, -142.500000) translate(535.000000, 124.000000)" fill="#CCCCCC">
                    <path d="M14.1139655,15.0097633 L14.1072945,15 L0,15 L0,37 L22,37 L22,23.0290846 L21.9823205,23.019039 C21.9940427,22.8475456 22,22.6744685 22,22.5 C22,18.3578644 18.6421356,15 14.5,15 C14.3705294,15 14.241825,15.0032806 14.1139655,15.0097633 Z M0,0 L37,0 L37,37 L0,37 L0,0 Z" id="Combined-Shape"></path>
                    <circle id="Oval" cx="8" cy="29" r="8"></circle>
                </g>
                <g id="Group-Copy-75" transform="translate(698.000000, 220.000000) rotate(-90.000000) translate(-698.000000, -220.000000) translate(679.000000, 201.000000)" fill="#11BAD7">
                    <path d="M14.1139655,15.0097633 L14.1072945,15 L0,15 L0,37 L22,37 L22,23.0290846 L21.9823205,23.019039 C21.9940427,22.8475456 22,22.6744685 22,22.5 C22,18.3578644 18.6421356,15 14.5,15 C14.3705294,15 14.241825,15.0032806 14.1139655,15.0097633 Z M0,0 L37,0 L37,37 L0,37 L0,0 Z" id="Combined-Shape"></path>
                    <circle id="Oval" cx="8" cy="29" r="8"></circle>
                </g>
                <g id="Group-Copy-93" transform="translate(810.500000, 290.500000) rotate(-90.000000) translate(-810.500000, -290.500000) translate(792.000000, 272.000000)" fill="#CCCCCC">
                    <path d="M14.1139655,15.0097633 L14.1072945,15 L0,15 L0,37 L22,37 L22,23.0290846 L21.9823205,23.019039 C21.9940427,22.8475456 22,22.6744685 22,22.5 C22,18.3578644 18.6421356,15 14.5,15 C14.3705294,15 14.241825,15.0032806 14.1139655,15.0097633 Z M0,0 L37,0 L37,37 L0,37 L0,0 Z" id="Combined-Shape"></path>
                    <circle id="Oval" cx="8" cy="29" r="8"></circle>
                </g>
                <g id="Group-Copy-106" transform="translate(667.000000, 535.000000) rotate(-90.000000) translate(-667.000000, -535.000000) translate(648.000000, 516.000000)" fill="#11BAD7">
                    <path d="M14.1139655,15.0097633 L14.1072945,15 L0,15 L0,37 L22,37 L22,23.0290846 L21.9823205,23.019039 C21.9940427,22.8475456 22,22.6744685 22,22.5 C22,18.3578644 18.6421356,15 14.5,15 C14.3705294,15 14.241825,15.0032806 14.1139655,15.0097633 Z M0,0 L37,0 L37,37 L0,37 L0,0 Z" id="Combined-Shape"></path>
                    <circle id="Oval" cx="8" cy="29" r="8"></circle>
                </g>
                <g id="Group-Copy-97" transform="translate(778.000000, 396.000000) rotate(-90.000000) translate(-778.000000, -396.000000) translate(759.000000, 377.000000)" fill="#11BAD7">
                    <path d="M14.1139655,15.0097633 L14.1072945,15 L0,15 L0,37 L22,37 L22,23.0290846 L21.9823205,23.019039 C21.9940427,22.8475456 22,22.6744685 22,22.5 C22,18.3578644 18.6421356,15 14.5,15 C14.3705294,15 14.241825,15.0032806 14.1139655,15.0097633 Z M0,0 L37,0 L37,37 L0,37 L0,0 Z" id="Combined-Shape"></path>
                    <circle id="Oval" cx="8" cy="29" r="8"></circle>
                </g>
                <g id="Group-Copy-101" transform="translate(778.000000, 504.000000) rotate(-90.000000) translate(-778.000000, -504.000000) translate(759.000000, 485.000000)" fill="#11BAD7">
                    <path d="M14.1139655,15.0097633 L14.1072945,15 L0,15 L0,37 L22,37 L22,23.0290846 L21.9823205,23.019039 C21.9940427,22.8475456 22,22.6744685 22,22.5 C22,18.3578644 18.6421356,15 14.5,15 C14.3705294,15 14.241825,15.0032806 14.1139655,15.0097633 Z M0,0 L37,0 L37,37 L0,37 L0,0 Z" id="Combined-Shape"></path>
                    <circle id="Oval" cx="8" cy="29" r="8"></circle>
                </g>
                <g id="Group-Copy-78" transform="translate(801.000000, 138.000000) rotate(-90.000000) translate(-801.000000, -138.000000) translate(782.000000, 119.000000)" fill="#11BAD7">
                    <path d="M14.1139655,15.0097633 L14.1072945,15 L0,15 L0,37 L22,37 L22,23.0290846 L21.9823205,23.019039 C21.9940427,22.8475456 22,22.6744685 22,22.5 C22,18.3578644 18.6421356,15 14.5,15 C14.3705294,15 14.241825,15.0032806 14.1139655,15.0097633 Z M0,0 L37,0 L37,37 L0,37 L0,0 Z" id="Combined-Shape"></path>
                    <circle id="Oval" cx="8" cy="29" r="8"></circle>
                </g>
                <g id="Group-Copy-65" transform="translate(457.000000, 22.000000) rotate(-90.000000) translate(-457.000000, -22.000000) translate(438.000000, 3.000000)" fill="#11BAD7">
                    <path d="M14.1139655,15.0097633 L14.1072945,15 L0,15 L0,37 L22,37 L22,23.0290846 L21.9823205,23.019039 C21.9940427,22.8475456 22,22.6744685 22,22.5 C22,18.3578644 18.6421356,15 14.5,15 C14.3705294,15 14.241825,15.0032806 14.1139655,15.0097633 Z M0,0 L37,0 L37,37 L0,37 L0,0 Z" id="Combined-Shape"></path>
                    <circle id="Oval" cx="8" cy="29" r="8"></circle>
                </g>
                <g id="Group-Copy-67" transform="translate(577.000000, 22.000000) rotate(-90.000000) translate(-577.000000, -22.000000) translate(558.000000, 3.000000)" fill="#11BAD7">
                    <path d="M14.1139655,15.0097633 L14.1072945,15 L0,15 L0,37 L22,37 L22,23.0290846 L21.9823205,23.019039 C21.9940427,22.8475456 22,22.6744685 22,22.5 C22,18.3578644 18.6421356,15 14.5,15 C14.3705294,15 14.241825,15.0032806 14.1139655,15.0097633 Z M0,0 L37,0 L37,37 L0,37 L0,0 Z" id="Combined-Shape"></path>
                    <circle id="Oval" cx="8" cy="29" r="8"></circle>
                </g>
                <g id="Group-Copy-81" transform="translate(846.500000, 22.500000) rotate(-90.000000) translate(-846.500000, -22.500000) translate(828.000000, 4.000000)" fill="#CCCCCC">
                    <path d="M14.1139655,15.0097633 L14.1072945,15 L0,15 L0,37 L22,37 L22,23.0290846 L21.9823205,23.019039 C21.9940427,22.8475456 22,22.6744685 22,22.5 C22,18.3578644 18.6421356,15 14.5,15 C14.3705294,15 14.241825,15.0032806 14.1139655,15.0097633 Z M0,0 L37,0 L37,37 L0,37 L0,0 Z" id="Combined-Shape"></path>
                    <circle id="Oval" cx="8" cy="29" r="8"></circle>
                </g>
                <g id="Group-Copy-61" transform="translate(388.000000, 241.000000) rotate(-90.000000) translate(-388.000000, -241.000000) translate(369.000000, 222.000000)" fill="#11BAD7">
                    <path d="M14.1139655,15.0097633 L14.1072945,15 L0,15 L0,37 L22,37 L22,23.0290846 L21.9823205,23.019039 C21.9940427,22.8475456 22,22.6744685 22,22.5 C22,18.3578644 18.6421356,15 14.5,15 C14.3705294,15 14.241825,15.0032806 14.1139655,15.0097633 Z M0,0 L37,0 L37,37 L0,37 L0,0 Z" id="Combined-Shape"></path>
                    <circle id="Oval" cx="8" cy="29" r="8"></circle>
                </g>
                <g id="Group-Copy-52" transform="translate(272.000000, 194.000000) rotate(-90.000000) translate(-272.000000, -194.000000) translate(253.000000, 175.000000)" fill="#11BAD7">
                    <path d="M14.1139655,15.0097633 L14.1072945,15 L0,15 L0,37 L22,37 L22,23.0290846 L21.9823205,23.019039 C21.9940427,22.8475456 22,22.6744685 22,22.5 C22,18.3578644 18.6421356,15 14.5,15 C14.3705294,15 14.241825,15.0032806 14.1139655,15.0097633 Z M0,0 L37,0 L37,37 L0,37 L0,0 Z" id="Combined-Shape"></path>
                    <circle id="Oval" cx="8" cy="29" r="8"></circle>
                </g>
                <g id="Group-Copy-54" transform="translate(272.000000, 64.000000) rotate(-90.000000) translate(-272.000000, -64.000000) translate(253.000000, 45.000000)" fill="#11BAD7">
                    <path d="M14.1139655,15.0097633 L14.1072945,15 L0,15 L0,37 L22,37 L22,23.0290846 L21.9823205,23.019039 C21.9940427,22.8475456 22,22.6744685 22,22.5 C22,18.3578644 18.6421356,15 14.5,15 C14.3705294,15 14.241825,15.0032806 14.1139655,15.0097633 Z M0,0 L37,0 L37,37 L0,37 L0,0 Z" id="Combined-Shape"></path>
                    <circle id="Oval" cx="8" cy="29" r="8"></circle>
                </g>
                <g id="Group-Copy-58" transform="translate(387.000000, 94.000000) rotate(-180.000000) translate(-387.000000, -94.000000) translate(368.000000, 75.000000)" fill="#11BAD7">
                    <path d="M14.1139655,15.0097633 L14.1072945,15 L0,15 L0,37 L22,37 L22,23.0290846 L21.9823205,23.019039 C21.9940427,22.8475456 22,22.6744685 22,22.5 C22,18.3578644 18.6421356,15 14.5,15 C14.3705294,15 14.241825,15.0032806 14.1139655,15.0097633 Z M0,0 L37,0 L37,37 L0,37 L0,0 Z" id="Combined-Shape"></path>
                    <circle id="Oval" cx="8" cy="29" r="8"></circle>
                </g>
                <g id="Group-Copy-70" transform="translate(553.000000, 101.000000) rotate(-180.000000) translate(-553.000000, -101.000000) translate(534.000000, 82.000000)" fill="#11BAD7">
                    <path d="M14.1139655,15.0097633 L14.1072945,15 L0,15 L0,37 L22,37 L22,23.0290846 L21.9823205,23.019039 C21.9940427,22.8475456 22,22.6744685 22,22.5 C22,18.3578644 18.6421356,15 14.5,15 C14.3705294,15 14.241825,15.0032806 14.1139655,15.0097633 Z M0,0 L37,0 L37,37 L0,37 L0,0 Z" id="Combined-Shape"></path>
                    <circle id="Oval" cx="8" cy="29" r="8"></circle>
                </g>
                <g id="Group-Copy-76" transform="translate(697.000000, 179.000000) rotate(-180.000000) translate(-697.000000, -179.000000) translate(678.000000, 160.000000)" fill="#11BAD7">
                    <path d="M14.1139655,15.0097633 L14.1072945,15 L0,15 L0,37 L22,37 L22,23.0290846 L21.9823205,23.019039 C21.9940427,22.8475456 22,22.6744685 22,22.5 C22,18.3578644 18.6421356,15 14.5,15 C14.3705294,15 14.241825,15.0032806 14.1139655,15.0097633 Z M0,0 L37,0 L37,37 L0,37 L0,0 Z" id="Combined-Shape"></path>
                    <circle id="Oval" cx="8" cy="29" r="8"></circle>
                </g>
                <g id="Group-Copy-94" transform="translate(810.000000, 249.000000) rotate(-180.000000) translate(-810.000000, -249.000000) translate(791.000000, 230.000000)" fill="#11BAD7">
                    <path d="M14.1139655,15.0097633 L14.1072945,15 L0,15 L0,37 L22,37 L22,23.0290846 L21.9823205,23.019039 C21.9940427,22.8475456 22,22.6744685 22,22.5 C22,18.3578644 18.6421356,15 14.5,15 C14.3705294,15 14.241825,15.0032806 14.1139655,15.0097633 Z M0,0 L37,0 L37,37 L0,37 L0,0 Z" id="Combined-Shape"></path>
                    <circle id="Oval" cx="8" cy="29" r="8"></circle>
                </g>
                <g id="Group-Copy-107" transform="translate(666.000000, 494.000000) rotate(-180.000000) translate(-666.000000, -494.000000) translate(647.000000, 475.000000)" fill="#11BAD7">
                    <path d="M14.1139655,15.0097633 L14.1072945,15 L0,15 L0,37 L22,37 L22,23.0290846 L21.9823205,23.019039 C21.9940427,22.8475456 22,22.6744685 22,22.5 C22,18.3578644 18.6421356,15 14.5,15 C14.3705294,15 14.241825,15.0032806 14.1139655,15.0097633 Z M0,0 L37,0 L37,37 L0,37 L0,0 Z" id="Combined-Shape"></path>
                    <circle id="Oval" cx="8" cy="29" r="8"></circle>
                </g>
                <g id="Group" transform="translate(722.265780, 593.309269) rotate(-51.000000) translate(-722.265780, -593.309269) translate(703.265780, 554.309269)">
                    <g id="Group-Copy-108" transform="translate(19.000000, 59.000000) rotate(-90.000000) translate(-19.000000, -59.000000) translate(0.000000, 40.000000)" fill="#11BAD7">
                        <path d="M14.1139655,15.0097633 L14.1072945,15 L0,15 L0,37 L22,37 L22,23.0290846 L21.9823205,23.019039 C21.9940427,22.8475456 22,22.6744685 22,22.5 C22,18.3578644 18.6421356,15 14.5,15 C14.3705294,15 14.241825,15.0032806 14.1139655,15.0097633 Z M0,0 L37,0 L37,37 L0,37 L0,0 Z" id="Combined-Shape"></path>
                        <circle id="Oval" cx="8" cy="29" r="8"></circle>
                    </g>
                    <g id="Group-Copy-109" transform="translate(18.500000, 18.500000) rotate(-180.000000) translate(-18.500000, -18.500000) translate(0.000000, -0.000000)" fill="#CCCCCC">
                        <path d="M14.1139655,15.0097633 L14.1072945,15 L3.41060513e-13,15 L3.41060513e-13,37 L22,37 L22,23.0290846 L21.9823205,23.019039 C21.9940427,22.8475456 22,22.6744685 22,22.5 C22,18.3578644 18.6421356,15 14.5,15 C14.3705294,15 14.241825,15.0032806 14.1139655,15.0097633 Z M3.41060513e-13,4.54747351e-13 L37,4.54747351e-13 L37,37 L3.41060513e-13,37 L3.41060513e-13,4.54747351e-13 Z" id="Combined-Shape"></path>
                        <circle id="Oval" cx="8" cy="29" r="8"></circle>
                    </g>
                </g>
                <g id="Group-Copy-98" transform="translate(777.500000, 355.500000) rotate(-180.000000) translate(-777.500000, -355.500000) translate(759.000000, 337.000000)" fill="#CCCCCC">
                    <path d="M14.1139655,15.0097633 L14.1072945,15 L0,15 L0,37 L22,37 L22,23.0290846 L21.9823205,23.019039 C21.9940427,22.8475456 22,22.6744685 22,22.5 C22,18.3578644 18.6421356,15 14.5,15 C14.3705294,15 14.241825,15.0032806 14.1139655,15.0097633 Z M0,0 L37,0 L37,37 L0,37 L0,0 Z" id="Combined-Shape"></path>
                    <circle id="Oval" cx="8" cy="29" r="8"></circle>
                </g>
                <g id="Group-Copy-104" transform="translate(624.500000, 324.500000) rotate(-180.000000) translate(-624.500000, -324.500000) translate(606.000000, 306.000000)" fill="#CCCCCC">
                    <path d="M14.1139655,15.0097633 L14.1072945,15 L0,15 L0,37 L22,37 L22,23.0290846 L21.9823205,23.019039 C21.9940427,22.8475456 22,22.6744685 22,22.5 C22,18.3578644 18.6421356,15 14.5,15 C14.3705294,15 14.241825,15.0032806 14.1139655,15.0097633 Z M0,5.68434189e-14 L37,5.68434189e-14 L37,37 L0,37 L0,5.68434189e-14 Z" id="Combined-Shape"></path>
                    <circle id="Oval" cx="8" cy="29" r="8"></circle>
                </g>
                <g id="Group-Copy-102" transform="translate(777.500000, 463.500000) rotate(-180.000000) translate(-777.500000, -463.500000) translate(759.000000, 445.000000)" fill="#CCCCCC">
                    <path d="M14.1139655,15.0097633 L14.1072945,15 L0,15 L0,37 L22,37 L22,23.0290846 L21.9823205,23.019039 C21.9940427,22.8475456 22,22.6744685 22,22.5 C22,18.3578644 18.6421356,15 14.5,15 C14.3705294,15 14.241825,15.0032806 14.1139655,15.0097633 Z M0,-1.13686838e-13 L37,-1.13686838e-13 L37,37 L0,37 L0,-1.13686838e-13 Z" id="Combined-Shape"></path>
                    <circle id="Oval" cx="8" cy="29" r="8"></circle>
                </g>
                <g id="Group-Copy-79" transform="translate(800.000000, 97.000000) rotate(-180.000000) translate(-800.000000, -97.000000) translate(781.000000, 78.000000)" fill="#11BAD7">
                    <path d="M14.1139655,15.0097633 L14.1072945,15 L0,15 L0,37 L22,37 L22,23.0290846 L21.9823205,23.019039 C21.9940427,22.8475456 22,22.6744685 22,22.5 C22,18.3578644 18.6421356,15 14.5,15 C14.3705294,15 14.241825,15.0032806 14.1139655,15.0097633 Z M0,0 L37,0 L37,37 L0,37 L0,0 Z" id="Combined-Shape"></path>
                    <circle id="Oval" cx="8" cy="29" r="8"></circle>
                </g>
                <g id="Group-Copy-62" transform="translate(387.500000, 200.500000) rotate(-180.000000) translate(-387.500000, -200.500000) translate(369.000000, 182.000000)" fill="#CCCCCC">
                    <path d="M14.1139655,15.0097633 L14.1072945,15 L0,15 L0,37 L22,37 L22,23.0290846 L21.9823205,23.019039 C21.9940427,22.8475456 22,22.6744685 22,22.5 C22,18.3578644 18.6421356,15 14.5,15 C14.3705294,15 14.241825,15.0032806 14.1139655,15.0097633 Z M0,0 L37,0 L37,37 L0,37 L0,0 Z" id="Combined-Shape"></path>
                    <circle id="Oval" cx="8" cy="29" r="8"></circle>
                </g>
                <g id="Group-Copy-53" transform="translate(271.000000, 153.000000) rotate(-180.000000) translate(-271.000000, -153.000000) translate(252.000000, 134.000000)" fill="#11BAD7">
                    <path d="M14.1139655,15.0097633 L14.1072945,15 L0,15 L0,37 L22,37 L22,23.0290846 L21.9823205,23.019039 C21.9940427,22.8475456 22,22.6744685 22,22.5 C22,18.3578644 18.6421356,15 14.5,15 C14.3705294,15 14.241825,15.0032806 14.1139655,15.0097633 Z M0,0 L37,0 L37,37 L0,37 L0,0 Z" id="Combined-Shape"></path>
                    <circle id="Oval" cx="8" cy="29" r="8"></circle>
                </g>
                <g id="Group-Copy-55" transform="translate(271.000000, 23.000000) rotate(-180.000000) translate(-271.000000, -23.000000) translate(252.000000, 4.000000)" fill="#11BAD7">
                    <path d="M14.1139655,15.0097633 L14.1072945,15 L0,15 L0,37 L22,37 L22,23.0290846 L21.9823205,23.019039 C21.9940427,22.8475456 22,22.6744685 22,22.5 C22,18.3578644 18.6421356,15 14.5,15 C14.3705294,15 14.241825,15.0032806 14.1139655,15.0097633 Z M0,0 L37,0 L37,37 L0,37 L0,0 Z" id="Combined-Shape"></path>
                    <circle id="Oval" cx="8" cy="29" r="8"></circle>
                </g>
                <g id="Group-Copy-59" transform="translate(346.000000, 95.000000) rotate(-270.000000) translate(-346.000000, -95.000000) translate(327.000000, 76.000000)" fill="#11BAD7">
                    <path d="M14.1139655,15.0097633 L14.1072945,15 L0,15 L0,37 L22,37 L22,23.0290846 L21.9823205,23.019039 C21.9940427,22.8475456 22,22.6744685 22,22.5 C22,18.3578644 18.6421356,15 14.5,15 C14.3705294,15 14.241825,15.0032806 14.1139655,15.0097633 Z M0,0 L37,0 L37,37 L0,37 L0,0 Z" id="Combined-Shape"></path>
                    <circle id="Oval" cx="8" cy="29" r="8"></circle>
                </g>
                <g id="Group-Copy-71" transform="translate(512.000000, 102.000000) rotate(-270.000000) translate(-512.000000, -102.000000) translate(493.000000, 83.000000)" fill="#11BAD7">
                    <path d="M14.1139655,15.0097633 L14.1072945,15 L0,15 L0,37 L22,37 L22,23.0290846 L21.9823205,23.019039 C21.9940427,22.8475456 22,22.6744685 22,22.5 C22,18.3578644 18.6421356,15 14.5,15 C14.3705294,15 14.241825,15.0032806 14.1139655,15.0097633 Z M0,0 L37,0 L37,37 L0,37 L0,0 Z" id="Combined-Shape"></path>
                    <circle id="Oval" cx="8" cy="29" r="8"></circle>
                </g>
                <g id="Group-Copy-77" transform="translate(656.000000, 180.000000) rotate(-270.000000) translate(-656.000000, -180.000000) translate(637.000000, 161.000000)" fill="#11BAD7">
                    <path d="M14.1139655,15.0097633 L14.1072945,15 L0,15 L0,37 L22,37 L22,23.0290846 L21.9823205,23.019039 C21.9940427,22.8475456 22,22.6744685 22,22.5 C22,18.3578644 18.6421356,15 14.5,15 C14.3705294,15 14.241825,15.0032806 14.1139655,15.0097633 Z M0,0 L37,0 L37,37 L0,37 L0,0 Z" id="Combined-Shape"></path>
                    <circle id="Oval" cx="8" cy="29" r="8"></circle>
                </g>
                <g id="Group-Copy-95" transform="translate(769.000000, 250.000000) rotate(-270.000000) translate(-769.000000, -250.000000) translate(750.000000, 231.000000)" fill="#11BAD7">
                    <path d="M14.1139655,15.0097633 L14.1072945,15 L0,15 L0,37 L22,37 L22,23.0290846 L21.9823205,23.019039 C21.9940427,22.8475456 22,22.6744685 22,22.5 C22,18.3578644 18.6421356,15 14.5,15 C14.3705294,15 14.241825,15.0032806 14.1139655,15.0097633 Z M0,0 L37,0 L37,37 L0,37 L0,0 Z" id="Combined-Shape"></path>
                    <circle id="Oval" cx="8" cy="29" r="8"></circle>
                </g>
                <g id="Group-Copy-99" transform="translate(736.000000, 356.000000) rotate(-270.000000) translate(-736.000000, -356.000000) translate(717.000000, 337.000000)" fill="#11BAD7">
                    <path d="M14.1139655,15.0097633 L14.1072945,15 L0,15 L0,37 L22,37 L22,23.0290846 L21.9823205,23.019039 C21.9940427,22.8475456 22,22.6744685 22,22.5 C22,18.3578644 18.6421356,15 14.5,15 C14.3705294,15 14.241825,15.0032806 14.1139655,15.0097633 Z M0,0 L37,0 L37,37 L0,37 L0,0 Z" id="Combined-Shape"></path>
                    <circle id="Oval" cx="8" cy="29" r="8"></circle>
                </g>
                <g id="empty-desk" transform="translate(583.500000, 324.500000) rotate(-270.000000) translate(-583.500000, -324.500000) translate(565.000000, 306.000000)" fill="#CCCCCC">
                    <path d="M14.1139655,15.0097633 L14.1072945,15 L-5.68434189e-14,15 L-5.68434189e-14,37 L22,37 L22,23.0290846 L21.9823205,23.019039 C21.9940427,22.8475456 22,22.6744685 22,22.5 C22,18.3578644 18.6421356,15 14.5,15 C14.3705294,15 14.241825,15.0032806 14.1139655,15.0097633 Z M-5.68434189e-14,0 L37,0 L37,37 L-5.68434189e-14,37 L-5.68434189e-14,0 Z" id="Combined-Shape"></path>
                    <circle id="Oval" cx="8" cy="29" r="8"></circle>
                </g>
                <g id="Group-Copy-103" transform="translate(736.000000, 464.000000) rotate(-270.000000) translate(-736.000000, -464.000000) translate(717.000000, 445.000000)" fill="#11BAD7">
                    <path d="M14.1139655,15.0097633 L14.1072945,15 L0,15 L0,37 L22,37 L22,23.0290846 L21.9823205,23.019039 C21.9940427,22.8475456 22,22.6744685 22,22.5 C22,18.3578644 18.6421356,15 14.5,15 C14.3705294,15 14.241825,15.0032806 14.1139655,15.0097633 Z M0,0 L37,0 L37,37 L0,37 L0,0 Z" id="Combined-Shape"></path>
                    <circle id="Oval" cx="8" cy="29" r="8"></circle>
                </g>
                <g id="Group-Copy-73" transform="translate(466.500000, 183.500000) rotate(-270.000000) translate(-466.500000, -183.500000) translate(448.000000, 165.000000)" fill="#CCCCCC">
                    <path d="M14.1139655,15.0097633 L14.1072945,15 L0,15 L0,37 L22,37 L22,23.0290846 L21.9823205,23.019039 C21.9940427,22.8475456 22,22.6744685 22,22.5 C22,18.3578644 18.6421356,15 14.5,15 C14.3705294,15 14.241825,15.0032806 14.1139655,15.0097633 Z M0,-1.13686838e-13 L37,-1.13686838e-13 L37,37 L0,37 L0,-1.13686838e-13 Z" id="Combined-Shape"></path>
                    <circle id="Oval" cx="8" cy="29" r="8"></circle>
                </g>
                <g id="Group-Copy-63" transform="translate(346.000000, 201.000000) rotate(-270.000000) translate(-346.000000, -201.000000) translate(327.000000, 182.000000)" fill="#11BAD7">
                    <path d="M14.1139655,15.0097633 L14.1072945,15 L0,15 L0,37 L22,37 L22,23.0290846 L21.9823205,23.019039 C21.9940427,22.8475456 22,22.6744685 22,22.5 C22,18.3578644 18.6421356,15 14.5,15 C14.3705294,15 14.241825,15.0032806 14.1139655,15.0097633 Z M0,0 L37,0 L37,37 L0,37 L0,0 Z" id="Combined-Shape"></path>
                    <circle id="Oval" cx="8" cy="29" r="8"></circle>
                </g>
                <g id="Group-Copy-82" transform="translate(908.173894, 86.173894) rotate(97.000000) translate(-908.173894, -86.173894) translate(889.173894, 67.173894)" fill="#11BAD7">
                    <path d="M14.1139655,15.0097633 L14.1072945,15 L0,15 L0,37 L22,37 L22,23.0290846 L21.9823205,23.019039 C21.9940427,22.8475456 22,22.6744685 22,22.5 C22,18.3578644 18.6421356,15 14.5,15 C14.3705294,15 14.241825,15.0032806 14.1139655,15.0097633 Z M0,0 L37,0 L37,37 L0,37 L0,0 Z" id="Combined-Shape"></path>
                    <circle id="Oval" cx="8" cy="29" r="8"></circle>
                </g>
                <g id="Group-Copy-84" transform="translate(894.173894, 200.173894) rotate(97.000000) translate(-894.173894, -200.173894) translate(875.173894, 181.173894)" fill="#11BAD7">
                    <path d="M14.1139655,15.0097633 L14.1072945,15 L0,15 L0,37 L22,37 L22,23.0290846 L21.9823205,23.019039 C21.9940427,22.8475456 22,22.6744685 22,22.5 C22,18.3578644 18.6421356,15 14.5,15 C14.3705294,15 14.241825,15.0032806 14.1139655,15.0097633 Z M0,0 L37,0 L37,37 L0,37 L0,0 Z" id="Combined-Shape"></path>
                    <circle id="Oval" cx="8" cy="29" r="8"></circle>
                </g>
                <g id="Group-Copy-87" transform="translate(871.173894, 384.173894) rotate(97.000000) translate(-871.173894, -384.173894) translate(852.173894, 365.173894)" fill="#11BAD7">
                    <path d="M14.1139655,15.0097633 L14.1072945,15 L0,15 L0,37 L22,37 L22,23.0290846 L21.9823205,23.019039 C21.9940427,22.8475456 22,22.6744685 22,22.5 C22,18.3578644 18.6421356,15 14.5,15 C14.3705294,15 14.241825,15.0032806 14.1139655,15.0097633 Z M0,0 L37,0 L37,37 L0,37 L0,0 Z" id="Combined-Shape"></path>
                    <circle id="Oval" cx="8" cy="29" r="8"></circle>
                </g>
                <g id="Group-Copy-90" transform="translate(849.173894, 566.173894) rotate(97.000000) translate(-849.173894, -566.173894) translate(830.173894, 547.173894)" fill="#11BAD7">
                    <path d="M14.1139655,15.0097633 L14.1072945,15 L0,15 L0,37 L22,37 L22,23.0290846 L21.9823205,23.019039 C21.9940427,22.8475456 22,22.6744685 22,22.5 C22,18.3578644 18.6421356,15 14.5,15 C14.3705294,15 14.241825,15.0032806 14.1139655,15.0097633 Z M0,0 L37,0 L37,37 L0,37 L0,0 Z" id="Combined-Shape"></path>
                    <circle id="Oval" cx="8" cy="29" r="8"></circle>
                </g>
                <g id="Group-Copy-83" transform="translate(904.173894, 127.173894) rotate(7.000000) translate(-904.173894, -127.173894) translate(885.173894, 108.173894)" fill="#11BAD7">
                    <path d="M14.1139655,15.0097633 L14.1072945,15 L0,15 L0,37 L22,37 L22,23.0290846 L21.9823205,23.019039 C21.9940427,22.8475456 22,22.6744685 22,22.5 C22,18.3578644 18.6421356,15 14.5,15 C14.3705294,15 14.241825,15.0032806 14.1139655,15.0097633 Z M0,0 L37,0 L37,37 L0,37 L0,0 Z" id="Combined-Shape"></path>
                    <circle id="Oval" cx="8" cy="29" r="8"></circle>
                </g>
                <g id="Group-Copy-85" transform="translate(889.616687, 240.616687) rotate(7.000000) translate(-889.616687, -240.616687) translate(871.116687, 222.116687)" fill="#11BAD7">
                    <path d="M14.1139655,15.0097633 L14.1072945,15 L0,15 L0,37 L22,37 L22,23.0290846 L21.9823205,23.019039 C21.9940427,22.8475456 22,22.6744685 22,22.5 C22,18.3578644 18.6421356,15 14.5,15 C14.3705294,15 14.241825,15.0032806 14.1139655,15.0097633 Z M0,0 L37,0 L37,37 L0,37 L0,0 Z" id="Combined-Shape"></path>
                    <circle id="Oval" cx="8" cy="29" r="8"></circle>
                </g>
                <g id="Group-Copy-88" transform="translate(866.616687, 424.616687) rotate(7.000000) translate(-866.616687, -424.616687) translate(848.116687, 406.116687)" fill="#11BAD7">
                    <path d="M14.1139655,15.0097633 L14.1072945,15 L0,15 L0,37 L22,37 L22,23.0290846 L21.9823205,23.019039 C21.9940427,22.8475456 22,22.6744685 22,22.5 C22,18.3578644 18.6421356,15 14.5,15 C14.3705294,15 14.241825,15.0032806 14.1139655,15.0097633 Z M0,0 L37,0 L37,37 L0,37 L0,0 Z" id="Combined-Shape"></path>
                    <circle id="Oval" cx="8" cy="29" r="8"></circle>
                </g>
                <g id="Group-Copy-91" transform="translate(844.616687, 606.616687) rotate(7.000000) translate(-844.616687, -606.616687) translate(826.116687, 588.116687)" fill="#11BAD7">
                    <path d="M14.1139655,15.0097633 L14.1072945,15 L0,15 L0,37 L22,37 L22,23.0290846 L21.9823205,23.019039 C21.9940427,22.8475456 22,22.6744685 22,22.5 C22,18.3578644 18.6421356,15 14.5,15 C14.3705294,15 14.241825,15.0032806 14.1139655,15.0097633 Z M0,0 L37,0 L37,37 L0,37 L0,0 Z" id="Combined-Shape"></path>
                    <circle id="Oval" cx="8" cy="29" r="8"></circle>
                </g>
                <g id="Group-Copy-86" transform="translate(879.173894, 321.173894) rotate(97.000000) translate(-879.173894, -321.173894) translate(860.173894, 302.173894)" fill="#11BAD7">
                    <path d="M14.1139655,15.0097633 L14.1072945,15 L0,15 L0,37 L22,37 L22,23.0290846 L21.9823205,23.019039 C21.9940427,22.8475456 22,22.6744685 22,22.5 C22,18.3578644 18.6421356,15 14.5,15 C14.3705294,15 14.241825,15.0032806 14.1139655,15.0097633 Z M0,0 L37,0 L37,37 L0,37 L0,0 Z" id="Combined-Shape"></path>
                    <circle id="Oval" cx="8" cy="29" r="8"></circle>
                </g>
                <g id="Group-Copy-89" transform="translate(858.173894, 493.173894) rotate(97.000000) translate(-858.173894, -493.173894) translate(839.173894, 474.173894)" fill="#11BAD7">
                    <path d="M14.1139655,15.0097633 L14.1072945,15 L0,15 L0,37 L22,37 L22,23.0290846 L21.9823205,23.019039 C21.9940427,22.8475456 22,22.6744685 22,22.5 C22,18.3578644 18.6421356,15 14.5,15 C14.3705294,15 14.241825,15.0032806 14.1139655,15.0097633 Z M0,0 L37,0 L37,37 L0,37 L0,0 Z" id="Combined-Shape"></path>
                    <circle id="Oval" cx="8" cy="29" r="8"></circle>
                </g>
            </g>
        </g>
    </g>
</svg>